[Trace]   DarkRiftServer        System Details:
                                	OS: Microsoft Windows NT 6.2.9200.0
                                	CLS Version: 4.0.30319.42000
                                	DarkRift: 2.6.0.0 - Free
[Trace]   pluginFactory         Created plugin 'HeroSyncGameManager'.
[Trace]   PluginManager         Plugin 'HeroSyncGameManager' has requested that DarkRift operates in thread safe mode.
[Trace]   DarkRiftServer        Switched into thread safe mode. Expect lower performance!
[Info]    PluginManager         Loaded plugin HeroSyncGameManager version 0.0.1
[Trace]   pluginFactory         Created plugin 'BichannelListener'.
[Trace]   DefaultNetworkListener Starting bichannel listener.
[Info]    DefaultNetworkListener Server mounted, listening on port 4296.
[Trace]   DefaultNetworkListener Accepted TCP connection from 127.0.0.1:58120.
[Trace]   DefaultNetworkListener Accepted UDP connection from 127.0.0.1:55184.
[Info]    ClientManager         New client [0] connected [127.0.0.1:58120|127.0.0.1:55184].
[Error]   ClientManager         An plugin encountered an error whilst handling the ClientConnected event. The client will still be connected. (See logs for exception)
                                 System.IO.FileNotFoundException: Could not load file or assembly 'HeroSyncCommon, Version=1.0.0.0, Culture=neutral, PublicKeyToken=null' or one of its dependencies. The system cannot find the file specified.
                                 File name: 'HeroSyncCommon, Version=1.0.0.0, Culture=neutral, PublicKeyToken=null'
                                    at HeroSyncServer.HeroSyncGameManager.ClientConnected(Object sender, ClientConnectedEventArgs e)
                                    at DarkRift.Server.ClientManager.<>c__DisplayClass34_0.<HandleNewConnection>b__1()
                                 
                                 WRN: Assembly binding logging is turned OFF.
                                 To enable assembly bind failure logging, set the registry value [HKLM\Software\Microsoft\Fusion!EnableLog] (DWORD) to 1.
                                 Note: There is some performance penalty associated with assembly bind failure logging.
                                 To turn this feature off, remove the registry value [HKLM\Software\Microsoft\Fusion!EnableLog].
                                 
[Info]    ClientManager         Client [0] disconnected.
[Trace]   DefaultNetworkListener Accepted TCP connection from 127.0.0.1:58146.
[Trace]   DefaultNetworkListener Accepted UDP connection from 127.0.0.1:53679.
[Info]    ClientManager         New client [1] connected [127.0.0.1:58146|127.0.0.1:53679].
[Error]   ClientManager         An plugin encountered an error whilst handling the ClientConnected event. The client will still be connected. (See logs for exception)
                                 System.IO.FileNotFoundException: Could not load file or assembly 'HeroSyncCommon, Version=1.0.0.0, Culture=neutral, PublicKeyToken=null' or one of its dependencies. The system cannot find the file specified.
                                 File name: 'HeroSyncCommon, Version=1.0.0.0, Culture=neutral, PublicKeyToken=null'
                                    at HeroSyncServer.HeroSyncGameManager.ClientConnected(Object sender, ClientConnectedEventArgs e)
                                    at DarkRift.Server.ClientManager.<>c__DisplayClass34_0.<HandleNewConnection>b__1()
                                 
                                 WRN: Assembly binding logging is turned OFF.
                                 To enable assembly bind failure logging, set the registry value [HKLM\Software\Microsoft\Fusion!EnableLog] (DWORD) to 1.
                                 Note: There is some performance penalty associated with assembly bind failure logging.
                                 To turn this feature off, remove the registry value [HKLM\Software\Microsoft\Fusion!EnableLog].
                                 
