[Trace]   DarkRiftServer        System Details:
                                	OS: Microsoft Windows NT 6.2.9200.0
                                	CLS Version: 4.0.30319.42000
                                	DarkRift: 2.6.0.0 - Free
[Trace]   pluginFactory         Created plugin 'BichannelListener'.
[Trace]   DefaultNetworkListener Starting bichannel listener.
[Info]    DefaultNetworkListener Server mounted, listening on port 4296.
[Trace]   DefaultNetworkListener Accepted TCP connection from 127.0.0.1:60744.
[Trace]   DefaultNetworkListener Accepted UDP connection from 127.0.0.1:59241.
[Info]    ClientManager         New client [0] connected [127.0.0.1:60744|127.0.0.1:59241].
