[Trace]   DarkRiftServer        System Details:
                                	OS: Microsoft Windows NT 6.2.9200.0
                                	CLS Version: 4.0.30319.42000
                                	DarkRift: 2.6.0.0 - Free
[Trace]   pluginFactory         Created plugin 'HeroSyncGameManager'.
[Trace]   PluginManager         Plugin 'HeroSyncGameManager' has requested that DarkRift operates in thread safe mode.
[Trace]   DarkRiftServer        Switched into thread safe mode. Expect lower performance!
[Info]    PluginManager         Loaded plugin HeroSyncGameManager version 0.0.1
[Trace]   pluginFactory         Created plugin 'BichannelListener'.
