[Trace]   DarkRiftServer        System Details:
                                	OS: Microsoft Windows NT 6.2.9200.0
                                	CLS Version: 4.0.30319.42000
                                	DarkRift: 2.6.0.0 - Free
[Trace]   pluginFactory         Created plugin 'HeroSyncGameManager'.
[Trace]   PluginManager         Plugin 'HeroSyncGameManager' has requested that DarkRift operates in thread safe mode.
[Trace]   DarkRiftServer        Switched into thread safe mode. Expect lower performance!
[Info]    PluginManager         Loaded plugin HeroSyncGameManager version 0.0.7
[Trace]   pluginFactory         Created plugin 'BichannelListener'.
[Trace]   DefaultNetworkListener Starting bichannel listener.
[Info]    DefaultNetworkListener Server mounted, listening on port 4296.
[Trace]   DefaultNetworkListener Accepted TCP connection from 127.0.0.1:53102.
[Trace]   DefaultNetworkListener Accepted UDP connection from 127.0.0.1:50673.
[Info]    ClientManager         New client [0] connected [127.0.0.1:53102|127.0.0.1:50673].
[Info]    ClientManager         Client [0] disconnected.
[Trace]   DefaultNetworkListener Accepted TCP connection from 127.0.0.1:59703.
[Trace]   DefaultNetworkListener Accepted UDP connection from 127.0.0.1:65454.
[Info]    ClientManager         New client [1] connected [127.0.0.1:59703|127.0.0.1:65454].
[Info]    HeroSyncGameManager   Player attempting to log in.
[Error]   Client                An plugin encountered an error whilst handling the MessageReceived event.
                                 System.NullReferenceException: Object reference not set to an instance of an object.
                                    at HeroSyncServer.GameRoom.StartSingle()
                                    at HeroSyncServer.HeroSyncGameManager.StartSingePlayerDebug(Object sender, MessageReceivedEventArgs e)
                                    at System.EventHandler`1.Invoke(Object sender, TEventArgs e)
                                    at DarkRift.Server.Client.<>c__DisplayClass45_0.<HandleIncomingMessage>b__0()
[Info]    ClientManager         Client [1] disconnected.
